^C:\USERS\NICOL\MASTEGAMEDEV\SOUND\SOUNDPROGRAMMING-EOT\SOUNDEOTPROJECT\FMODWRAPPER\PCH.CPP
C:\USERS\NICOL\MASTEGAMEDEV\SOUND\SOUNDPROGRAMMING-EOT\SOUNDEOTPROJECT\FMODWRAPPER\X64\DEBUG\FMODWRAPPER.PCH
C:\USERS\NICOL\MASTEGAMEDEV\SOUND\SOUNDPROGRAMMING-EOT\SOUNDEOTPROJECT\X64\DEBUG\FMODWRAPPER.PDB
C:\USERS\NICOL\MASTEGAMEDEV\SOUND\SOUNDPROGRAMMING-EOT\SOUNDEOTPROJECT\X64\DEBUG\FMODWRAPPER.IDB
C:\USERS\NICOL\MASTEGAMEDEV\SOUND\SOUNDPROGRAMMING-EOT\SOUNDEOTPROJECT\FMODWRAPPER\X64\DEBUG\PCH.OBJ
^C:\USERS\NICOL\MASTEGAMEDEV\SOUND\SOUNDPROGRAMMING-EOT\SOUNDEOTPROJECT\FMODWRAPPER\FMODWRAPPER.CPP
C:\USERS\NICOL\MASTEGAMEDEV\SOUND\SOUNDPROGRAMMING-EOT\SOUNDEOTPROJECT\X64\DEBUG\FMODWRAPPER.PDB
C:\USERS\NICOL\MASTEGAMEDEV\SOUND\SOUNDPROGRAMMING-EOT\SOUNDEOTPROJECT\X64\DEBUG\FMODWRAPPER.IDB
C:\USERS\NICOL\MASTEGAMEDEV\SOUND\SOUNDPROGRAMMING-EOT\SOUNDEOTPROJECT\FMODWRAPPER\X64\DEBUG\FMODWRAPPER.OBJ
